Waste processing in the European Union
…
The definitions used in this report will be based on the official European Union directive, which gives precise legal characterization. [4]

Eurostat

Eurostat is the statistical office of the European Union. Its goal is to produce high quality statistics for the European Union and the Member States.

For waste management, Eurostat collects and analyzes the data. The collection itself is done by the member states, usually through their Ministry of Environment. The quality, accuracy and coherence of the data is considered to be high for all states. [5]

The CRAN repository contains a package aptly named eurostat which can be used for ease of accessing the eurostat data:

get_eurostat("env_wasgen", type="label")

## Table env_wasgen cached at /tmp/RtmpOqulwL/eurostat/env_wasgen_date_label_TF.rds

## # A tibble: 866,124 x 7
##                    unit    hazard                           nace_r2
##                  <fctr>    <fctr>                            <fctr>
##  1 Kilograms per capita Hazardous Agriculture, forestry and fishing
##  2 Kilograms per capita Hazardous Agriculture, forestry and fishing
##  3 Kilograms per capita Hazardous Agriculture, forestry and fishing
##  4 Kilograms per capita Hazardous Agriculture, forestry and fishing
##  5 Kilograms per capita Hazardous Agriculture, forestry and fishing
##  6 Kilograms per capita Hazardous Agriculture, forestry and fishing
##  7 Kilograms per capita Hazardous Agriculture, forestry and fishing
##  8 Kilograms per capita Hazardous Agriculture, forestry and fishing
##  9 Kilograms per capita Hazardous Agriculture, forestry and fishing
## 10 Kilograms per capita Hazardous Agriculture, forestry and fishing
## # ... with 866,114 more rows, and 4 more variables: waste <fctr>,
## #   geo <fctr>, time <date>, values <dbl>
…
